<svg width="98" height="100" viewBox="0 0 98 100" fill="none" xmlns="http://www.w3.org/2000/svg">
<path d="M54.8959 59.1515C52.6695 61.2362 49.1885 61.2362 46.9621 59.1515C46.3323 58.5618 45.7098 57.9645 45.0981 57.3558C43.9578 56.2211 43.0508 55.2024 42.377 54.2997C41.7032 53.3971 41.2324 52.5676 40.9646 51.8111C40.6968 51.0546 40.5629 50.2809 40.5629 49.49C40.5629 47.8739 41.1071 46.5243 42.1956 45.4411C43.284 44.358 44.6402 43.8164 46.2643 43.8164C47.1626 43.8164 48.0179 44.0055 48.8299 44.3838C49.6419 44.762 50.3416 45.295 50.929 45.9827C51.5164 45.295 52.2161 44.762 53.0281 44.3838C53.8401 44.0055 54.6953 43.8164 55.5937 43.8164C57.2177 43.8164 58.574 44.358 59.6624 45.4411C60.7508 46.5243 61.2951 47.8739 61.2951 49.49C61.2951 50.2809 61.1612 51.0546 60.8934 51.8111C60.6256 52.5676 60.1548 53.3971 59.481 54.2997C58.8072 55.2024 57.9002 56.2211 56.7599 57.3558C56.1482 57.9645 55.5256 58.5618 54.8959 59.1515Z" fill="#778E98"/>
<path fill-rule="evenodd" clip-rule="evenodd" d="M0 50.2798C0 26.1731 16.8985 6.0132 39.4961 0.999583C42.9349 0.236629 45.9713 3.03188 45.9713 6.55431V30.3739C45.9713 33.0469 44.1291 35.3046 41.865 36.7256C38.7703 38.6679 36.3777 41.6258 35.1545 45.1321C34.5705 46.8061 34.2531 48.6051 34.2531 50.4783C34.2531 52.3514 34.5705 54.1504 35.1545 55.8244C36.3777 59.3307 38.7703 62.2887 41.865 64.231C44.1291 65.6519 45.9713 67.9097 45.9713 70.5827V94.0053C45.9713 97.5277 42.9349 100.323 39.4961 99.56C16.8985 94.5465 0 74.3866 0 50.2798ZM35.1545 27.1433C35.1545 27.8012 34.8278 28.413 34.3009 28.8069C27.7055 33.7383 23.4363 41.6097 23.4363 50.4783C23.4363 59.3468 27.7055 67.2183 34.3009 72.1496C34.8278 72.5436 35.1545 73.1554 35.1545 73.8132V83.8655C35.1545 85.2945 33.7 86.2565 32.428 85.6053C19.5982 79.0364 10.8168 65.6836 10.8168 50.2798C10.8168 34.876 19.5982 21.5232 32.428 14.9544C33.7 14.3031 35.1545 15.2651 35.1545 16.6942V27.1433Z" fill="#778E98"/>
<path d="M54.9853 94.0053C54.9853 97.5277 58.0211 100.323 61.4599 99.5602C76.0178 96.3305 88.2105 86.8147 95.0437 74.0072C96.8826 70.5606 94.1572 66.7034 90.2508 66.7034C88.0212 66.7034 86.0285 68.0249 84.9206 69.9597C81.0989 76.6338 75.3932 82.0906 68.5285 85.6053C67.2565 86.2566 65.8021 85.2945 65.8021 83.8655V73.8132C65.8021 73.1554 66.1288 72.5436 66.6556 72.1496C71.4507 68.5644 75.0163 63.425 76.6055 57.4782C76.8511 56.5593 77.6629 55.8867 78.6141 55.8867H91.7454C94.7324 55.8867 97.1538 53.4652 97.1538 50.4783C97.1538 47.4913 94.7324 45.0699 91.7454 45.0699H78.6141C77.6629 45.0699 76.8511 44.3973 76.6055 43.4783C75.0163 37.5315 71.4507 32.3922 66.6556 28.8069C66.1288 28.413 65.8021 27.8012 65.8021 27.1433V16.6942C65.8021 15.2651 67.2565 14.3031 68.5285 14.9543C75.5111 18.5293 81.2945 24.1138 85.1158 30.9447C86.2137 32.9074 88.2189 34.2531 90.4677 34.2531C94.3481 34.2531 97.07 30.4377 95.2776 26.9961C88.491 13.9649 76.1854 4.26636 61.4599 0.99946C58.0211 0.236545 54.9853 3.03188 54.9853 6.55432V30.3739C54.9853 33.0469 56.8275 35.3046 59.0915 36.7256C62.1863 38.6679 64.5789 41.6258 65.8021 45.1321C66.386 46.8061 66.7035 48.6051 66.7035 50.4783C66.7035 52.3514 66.386 54.1504 65.8021 55.8244C64.5789 59.3307 62.1863 62.2887 59.0915 64.231C56.8275 65.6519 54.9853 67.9097 54.9853 70.5827V94.0053Z" fill="#778E98"/>
</svg>
